{
    "prepare_queue": {
        "installed": [],
        "uninstalled": []
    },
    "config_munge": {
        "files": {
            "AndroidManifest.xml": {
                "parents": {
                    "/manifest/application": [
                        {
                            "xml": "<meta-data android:name=\"com.google.android.gms.version\" android:value=\"@integer/google_play_services_version\" />",
                            "count": 2
                        },
                        {
                            "xml": "<activity android:label=\"@string/app_name\" android:name=\"com.lefortsoftware.ttsplugin\"><intent-filter /></activity>",
                            "count": 1
                        },
                        {
                            "xml": "<receiver android:exported=\"false\" android:name=\"de.appplant.cordova.plugin.localnotification.TriggerReceiver\" />",
                            "count": 1
                        },
                        {
                            "xml": "<receiver android:exported=\"false\" android:name=\"de.appplant.cordova.plugin.localnotification.ClearReceiver\" />",
                            "count": 1
                        },
                        {
                            "xml": "<activity android:exported=\"false\" android:launchMode=\"singleInstance\" android:name=\"de.appplant.cordova.plugin.localnotification.ClickActivity\" android:theme=\"@android:style/Theme.NoDisplay\" />",
                            "count": 1
                        },
                        {
                            "xml": "<receiver android:exported=\"false\" android:name=\"de.appplant.cordova.plugin.notification.TriggerReceiver\" />",
                            "count": 1
                        },
                        {
                            "xml": "<receiver android:exported=\"false\" android:name=\"de.appplant.cordova.plugin.notification.ClearReceiver\" />",
                            "count": 1
                        },
                        {
                            "xml": "<receiver android:exported=\"false\" android:name=\"de.appplant.cordova.plugin.localnotification.RestoreReceiver\"><intent-filter><action android:name=\"android.intent.action.BOOT_COMPLETED\" /></intent-filter></receiver>",
                            "count": 1
                        },
                        {
                            "xml": "<activity android:exported=\"false\" android:launchMode=\"singleInstance\" android:name=\"de.appplant.cordova.plugin.notification.ClickActivity\" android:theme=\"@android:style/Theme.NoDisplay\" />",
                            "count": 1
                        },
                        {
                            "xml": "<meta-data android:name=\"com.google.android.maps.v2.API_KEY\" android:value=\"AIzaSyCafwshKdpjTvxGMwl3ZYxQJ3TqW1E_K4s\" />",
                            "count": 1
                        },
                        {
                            "xml": "<receiver android:name=\"org.altbeacon.beacon.startup.StartupBroadcastReceiver\"><intent-filter><action android:name=\"android.intent.action.BOOT_COMPLETED\" /><action android:name=\"android.intent.action.ACTION_POWER_CONNECTED\" /><action android:name=\"android.intent.action.ACTION_POWER_DISCONNECTED\" /></intent-filter></receiver>",
                            "count": 1
                        },
                        {
                            "xml": "<service android:enabled=\"true\" android:exported=\"true\" android:isolatedProcess=\"false\" android:label=\"iBeacon\" android:name=\"org.altbeacon.beacon.service.BeaconService\"></service>",
                            "count": 1
                        },
                        {
                            "xml": "<service android:enabled=\"true\" android:name=\"org.altbeacon.beacon.BeaconIntentProcessor\"><meta-data android:name=\"background\" android:value=\"true\" /><intent-filter android:priority=\"1\"><action android:name=\"com.unarin.cordova.beacon.IBeaconPlugin.DID_RANGING\" /><action android:name=\"com.unarin.cordova.beacon.IBeaconPlugin.DID_MONITORING\" /></intent-filter></service>",
                            "count": 1
                        }
                    ],
                    "/manifest": [
                        {
                            "xml": "<uses-permission android:name=\"android.permission.RECEIVE_BOOT_COMPLETED\" />",
                            "count": 1
                        },
                        {
                            "xml": "<uses-permission android:name=\"android.permission.INTERNET\" />",
                            "count": 2
                        },
                        {
                            "xml": "<uses-permission android:name=\"android.permission.ACCESS_NETWORK_STATE\" />",
                            "count": 1
                        },
                        {
                            "xml": "<uses-permission android:name=\"android.permission.WRITE_EXTERNAL_STORAGE\" />",
                            "count": 1
                        },
                        {
                            "xml": "<uses-permission android:name=\"com.google.android.providers.gsf.permission.READ_GSERVICES\" />",
                            "count": 1
                        },
                        {
                            "xml": "<uses-permission android:name=\"android.permission.ACCESS_COARSE_LOCATION\" />",
                            "count": 1
                        },
                        {
                            "xml": "<uses-permission android:name=\"android.permission.ACCESS_FINE_LOCATION\" />",
                            "count": 1
                        },
                        {
                            "xml": "<uses-feature android:glEsVersion=\"0x00020000\" android:required=\"true\" />",
                            "count": 1
                        },
                        {
                            "xml": "<uses-permission android:name=\"android.permission.BLUETOOTH\" />",
                            "count": 1
                        },
                        {
                            "xml": "<uses-permission android:name=\"android.permission.BLUETOOTH_ADMIN\" />",
                            "count": 1
                        },
                        {
                            "xml": "<uses-permission android:name=\"android.permission.READ_EXTERNAL_STORAGE\" />",
                            "count": 1
                        }
                    ],
                    "/*": [
                        {
                            "xml": "<uses-permission android:name=\"android.permission.WRITE_EXTERNAL_STORAGE\" />",
                            "count": 1
                        },
                        {
                            "xml": "<uses-permission android:name=\"android.permission.ACCESS_COARSE_LOCATION\" />",
                            "count": 2
                        },
                        {
                            "xml": "<uses-permission android:name=\"android.permission.ACCESS_FINE_LOCATION\" />",
                            "count": 2
                        }
                    ]
                }
            },
            "res/xml/config.xml": {
                "parents": {
                    "widget": [
                        {
                            "xml": "<feature name=\"TtsPlugin\"><param name=\"android-package\" value=\"com.lefortsoftware.ttsplugin.TtsPlugin\" /></feature>",
                            "count": 1
                        }
                    ],
                    "/*": [
                        {
                            "xml": "<feature name=\"Bluetooth\"><param name=\"android-package\" value=\"org.apache.cordova.bluetooth.BluetoothPlugin\" /></feature>",
                            "count": 1
                        },
                        {
                            "xml": "<feature name=\"Device\"><param name=\"android-package\" value=\"org.apache.cordova.device.Device\" /></feature>",
                            "count": 1
                        },
                        {
                            "xml": "<feature name=\"LocalNotification\"><param name=\"android-package\" value=\"de.appplant.cordova.plugin.localnotification.LocalNotification\" /></feature>",
                            "count": 1
                        },
                        {
                            "xml": "<feature name=\"Camera\"><param name=\"android-package\" value=\"org.apache.cordova.camera.CameraLauncher\" /></feature>",
                            "count": 1
                        },
                        {
                            "xml": "<feature name=\"Accelerometer\"><param name=\"android-package\" value=\"org.apache.cordova.devicemotion.AccelListener\" /></feature>",
                            "count": 1
                        },
                        {
                            "xml": "<feature name=\"Compass\"><param name=\"android-package\" value=\"org.apache.cordova.deviceorientation.CompassListener\" /></feature>",
                            "count": 1
                        },
                        {
                            "xml": "<feature name=\"HttpRequest\"><param name=\"android-package\" value=\"plugin.http.request.HttpRequest\" /></feature>",
                            "count": 1
                        },
                        {
                            "xml": "<feature name=\"GoogleMaps\"><param name=\"android-package\" value=\"plugin.google.maps.GoogleMaps\" /></feature>",
                            "count": 1
                        },
                        {
                            "xml": "<feature name=\"External\"><param name=\"android-package\" value=\"plugin.google.maps.External\" /></feature>",
                            "count": 1
                        },
                        {
                            "xml": "<feature name=\"Geocoder\"><param name=\"android-package\" value=\"plugin.google.maps.MyGeocoder\" /></feature>",
                            "count": 1
                        },
                        {
                            "xml": "<feature name=\"LocationManager\"><param name=\"android-package\" value=\"com.unarin.cordova.beacon.LocationManager\" /></feature>",
                            "count": 1
                        }
                    ]
                }
            }
        }
    },
    "installed_plugins": {
        "android.support.v4": {
            "PACKAGE_NAME": "br.furb.toaqui"
        },
        "com.google.playservices": {
            "PACKAGE_NAME": "br.furb.toaqui"
        },
        "com.lefortsoftware.ttsplugin": {
            "PACKAGE_NAME": "br.furb.toaqui"
        },
        "com.phonegap.plugins.bluetooth": {
            "PACKAGE_NAME": "br.furb.toaqui"
        },
        "de.appplant.cordova.plugin.local-notification": {
            "PACKAGE_NAME": "br.furb.toaqui"
        },
        "org.apache.cordova.camera": {
            "PACKAGE_NAME": "br.furb.toaqui"
        },
        "org.apache.cordova.console": {
            "PACKAGE_NAME": "br.furb.toaqui"
        },
        "org.apache.cordova.device-motion": {
            "PACKAGE_NAME": "br.furb.toaqui"
        },
        "org.apache.cordova.device-orientation": {
            "PACKAGE_NAME": "br.furb.toaqui"
        },
        "org.apache.cordova.geolocation": {
            "PACKAGE_NAME": "br.furb.toaqui"
        },
        "plugin.google.maps": {
            "PACKAGE_NAME": "br.furb.toaqui"
        },
        "com.unarin.cordova.beacon": {
            "PACKAGE_NAME": "br.furb.toaqui"
        }
    },
    "dependent_plugins": {
        "org.apache.cordova.device": {
            "PACKAGE_NAME": "br.furb.toaqui"
        },
        "plugin.http.request": {
            "PACKAGE_NAME": "br.furb.toaqui"
        }
    }
}